{
  "quit": "QUITTER",
  "battery": "BATTERIE",
  "return": "RETOUR",
  "tutorial": "TUTORIEL",
  "param": "PARAMÈTRES",
  "toolbox": "BOÎTE À OUTILS",
  "receivesms": "RECEVOIR DES ALERTES SMS",
  "receivemail": "RECEVOIR DES ALERTES PAR MAIL",
  "changelangage": "CHANGER LA LANGUE",
  "godocking": "EN ROUTE VERS LA STATION DE CHARGE",
  "round": "TOURNÉE DE DIVERTISSEMENT",
  "patrol": "Patrouille",
  "patrolInProgress": "PATROUILLE EN COURS",
  "roundInProgress": "TOURNÉE DE DIVERTISSEMENT EN COURS",
  "moving": "DÉPLACEMENT EN COURS VERS :",
  "charging_remaining": "ROBOT EN CHARGE - BATTERIE: ",
  "walkInProgress": "MARCHEZ A VOTRE RYTHME SANS POUSSER",
  "notpush": "INSTALLEZ VOUS COMME SUR LA PHOTO ET APPUYEZ SUR «ALLONS-Y»",
  "mails": "Mails",
  "sms": "SMS",
  "langage": "Langue",
  "distance_covered": "Distance parcourue",
  "goto": "Se rendre au :",
  "inProgress": "EN COURS",
  "post": "Poste",
  "sentinel": "Sentinelle",
  "morningRound": "Tournée du matin",
  "eveningRound": "Tournée du soir",
  "btn_go": "GO",
  "btn_help": "Aide",
  "btn_walk": "Allons-y !",
  "btn_stop": "STOP",
  "btn_charge": "CHARGER",
  "btn_cancel": "Annuler",
  "btn_ok": "OK",
  "btn_yes": "OUI",
  "btn_no": "NON",
  "numexist": "Ce numéro existe déjà !",
  "deletenum": "Veuillez supprimer un numéro d'abord",
  "numadd": "Numéro ajouté",
  "numincorrect": "Numéro invalide",
  "newnum": "Nouveau numéro",
  "mailexist": "Cette adresse existe déjà ! ",
  "deletemail": "Veuillez supprimer une adresse d'abord",
  "mailadd": "Adresse mail ajoutée !",
  "mailincorrect": "Adresse mail invalide",
  "newmail": "Nouvelle adresse",
  "maps": "Cartes",
  "roundlist": "Liste des tournées",
  "roundcreation": "CRÉATION DE TOURNÉES",
  "headBand_rounds": "LES TOURNÉES",
  "rounds_edit": "ÉDITION DE TOURNÉE",
  "wait": "Veuillez patienter ...",
  "error": "Erreur",
  "cantstart": "Impossible de démarrer l'application. Vérifiez que le robot est allumé correctement.",
  "nointernet": "Pas d'internet",
  "robotConnectedToI": "Le robot est connecté à internet",
  "editpswd":"CHANGER LE MOT DE PASSE",
  "currentpswd":"Mot de passe actuel :",
  "newpswd":"Nouveau mot de passe :",
  "save":"Sauvegarder",
  "success":"C'est Fait !",
  "pswdsaved":"Mot de passe sauvegardé",
  "langage1":"Changer la langue",
  "editpswd1":"Changer le mot de passe",
  "wrongpass":"Mauvais mot de passe",
  "gabarit":"Profil anticollision",

  "smsSOS": "Quelqu'un a appuyé sur le bouton SOS du robot",

  "mailSOS_suj": "SOS",
  "mailSOS_body": "<br> Une personne a besoin d'aide",
  "mailBattery_suj": "Batterie Faible",
  "mailBattery_body": "<br> Le robot a besoin d'etre chargé. Veuillez le mettre sur sa station de charge.",
  "mailBlocked_suj": "Robot bloqué",
  "mailBlocked_body": "<br> Le robot est bloqué <br>",
  "mailFall_body": "Le robot détecte une personne à terre <br>",
  "mailFall_suj": "CHUTE détectée",
  "mailPerson_suj": "Personne détectée",
  "mailPerson_body": "Le robot a détecté une personne <br>",

  "presentAlert_title": "Robot en charge",
  "presentAlert_message": "Attention je vais reculer !",
  "presentConfirm_title": "Ronde suspendue",
  "presentConfirm_message": "Reprendre la ronde ?",
  "FallConfirm_title": "Chute détectée !",
  "FallConfirm_message": "Reprendre la patrouille ?",
  "RemoteConfirm_title": "Ronde arrêtée à distance",
  "RemoteConfirm_message": "Reprendre la ronde ?",
  "blockedAlert_title": "Robot bloqué !",
  "blockedAlert_message": "Veuillez enlever l'obstacle ou me déplacer",
  "goDockingConfirm_title": "Batterie: ",
  "goDockingConfirm_message": "Aller en station de charge ?",
  "lowBattery_title": "Batterie faible",
  "lowBattery_message": "Aller en station de charge ?",
  "errorlaunchAlert_title": "Une erreur est survenue",
  "errorlaunchAlert_message": "Veuillez rententer de lancer la ronde",
  "robotmuststayondocking_title": "Batterie faible",
  "robotmuststayondocking_message": "Le robot doit rester sur la docking",
  "errorNavAlert_title": "Une erreur est survenue",
  "errorNavAlert_message": "Veuillez appeler le support technique si le problème persiste",
  "lostAlert_title": "Robot perdu !",
  "lostAlert_message": "Veuillez appeler le support technique",
  "quitConfirm_title": "Quitter l'application ?",
  "errorBlocked_title": "Robot bloqué",
  "errorBlocked_message": "Veuillez vérifier que le robot est bien dégagé",
  "statusRedPresent_title": "Erreur",
  "statusRedPresent_message": "Veuillez me redémarrer OU appeler mon fabricant si le problème persiste",
  "statusGreenPresent_title": "Statut vert",
  "statusGreenPresent_message": "Le robot est en bonne santé !",
  "leaveDockingConfirm_title": "Batterie: ",
  "leaveDockingConfirm_message": "Sortir de la station de charge ?",
  "leaveDockingAlert_title": "Robot en charge",
  "leaveDockingAlert_message": "Veuillez me retirer de la station de charge",
  "askHelp_title": "Aide demandée",
  "askHelp_message": "Quelqu'un va venir vous aider",

  "uvsettings": "Paramètres UV",
  "evacuationTime": "Temps d'évacuation (s) :",
  "preheatingTime": "Temps de préchauffage (s) : ",
  "lampThreshold": "Seuil horaire des lampes (h) : ",
  "uvThreshold": "Seuil UV (W/m²) : ",
  "batteryThreshold": "Seuil batterie lampes (%) : ",
  "personDetection": "Detection de personne : ",
  "btn_save": "Sauver",
  "saveDone": "Sauvegarde terminée",
  "POI": "Les POI :",
  "addPOI": "Ajouter un POI",
  "editPOI": "Modifier un POI",
  "addMap": "Ajouter une carte",
  "editMap": "Modifier la carte",
  "goToPOI": "Aller au POI :",
  "reloc": "RELOC",
  "confirm": "VALIDER",
  "delete": "Supprimer",
  "edit": "Éditer",
  "POIname": "Nom du POI :",
  "indicationAddPOI": "Positionnez et orientez le robot à l’endroit souhaité puis cliquez sur “Sauver”.",
  "mapName": "Nom de la carte :",
  "extensionIndication": "Le format est incorrect. Un .png est attendu.",
  "colorIndication": "Erreur. La carte ne respecte pas le code couleur attendu.",
  "relocate": "Repositionner",
  "speedOption": "Vitesse (%) : ",
  "speed": "Vitesse : ",
  "directionOption": "Sens : ",
  "frontOption": "Avant",
  "backOption": "Arrière",
  "avoidanceOption": "Évitement : ",
  "cartography": "CARTOGRAPHIE",
  "qrcodes": "QR CODES",
  "rounds": "TOURNÉES",
  "qrcodes_list": "QR codes :",
  "qrcodeIndication": "Placez le robot en face du QR code (~ 50 cm).",
  "qrcodeIndication1": "Puis cliquez sur 'Scanner'.",
  "qrcodeScan": "Scanner",
  "qrcodeDetected1": "QR code",
  "qrcodeDetected2": "détecté",
  "tieRound": "Lier à une tournée",
  "round_qrcodesPage": "Tournée : ",
  "qrcodeUsed1": "Le QR code '",
  "qrcodeUsed2": "' est deja utilisé",
  "name": "Nom :",
  "map": "Carte",
  "addPOIfunction": "Ajout de POI",
  "POIselected": "POI :",
  "breakOption": "Pause (s) : ",
  "break": "Pause : ",
  "options": "Options : ",
  "option": "Option : ",
  "none": "Aucune",
  "lampon": "Lampes allumées",
  "lampoff": "Lampes éteintes",
  "lampoff1": "Sans détection",
  "add": "+",
  "POI_list": "Liste des POI : ",
  "rounds_list": "Les tournées :",
  "copy": "Copier",
  "POI_edit": "Tournée :",
  "deletion": "Suppression",
  "deleteMessage": "Êtes-vous sûr de vouloir supprimer cet élément ?",
  "map_selection": "Choisir une carte",
  "nofile": "Aucun fichier",
  "map_loaded": "Carte chargée.",

  "configDocking": "Configuration de la docking",
  "continue": "Continuer",
  "configDockingInfo1": "Veuillez éteindre la station de charge lors de sa configuration.",
  "configDockingInfo2": "Positionnez le robot sur la docking puis cliquez sur “Sauver”.",
  "dataRemove": "Écrasement des données",
  "dataRemoveInfo": "Les anciennes données vont être écrasées afin de reconfigurer la docking",
  "configDockingConfirm": "Êtes-vous sûr de vouloir configurer la docking à cet endroit ?",

  "password": "Mot de passe",
  "enterPassword": "Entrez le mot de passe pour sauvegarder les modifications.",
  "wrongPassword": "Mot de passe incorrect. Veuillez réessayer.",

  "URL_toolbox":"assets/pdf/tuto_FR.pdf",

  "manualreloc": "Reloc manuelle",
  "qrcode": "Choisir un QR code",
  "unknownqrcode": "QR code non reconnu",
  "relocalizing": "Relocalisation en cours ...",
  "alertReloc": "Prière de ne pas déplacer le robot pendant la relocalisation",
  "localizationDone": "Robot localisé sur map : ",
  "noqrdetected":"Aucun QR code détecté",
  "admin":"Mode administrateur",
  "cabinet_open":"Armoire ouverte"
}
